2011-12-29 17:22:15.45 Server      Microsoft SQL Server 2005 - 9.00.5000.00 (Intel X86) 
	Dec 10 2010 10:56:29 
	Copyright (c) 1988-2005 Microsoft Corporation
	Express Edition on Windows NT 6.1 (Build 7600: )

2011-12-29 17:22:15.50 Server      (c) 2005 Microsoft Corporation.
2011-12-29 17:22:15.55 Server      All rights reserved.
2011-12-29 17:22:15.60 Server      Server process ID is 5768.
2011-12-29 17:22:15.65 Server      Authentication mode is MIXED.
2011-12-29 17:22:15.65 Server      Logging SQL Server messages in file 'c:\Visual Studio Projects\sqlrd6\bin\DATA\MSSQL.2\MSSQL\LOG\ERRORLOG'.
2011-12-29 17:22:15.65 Server      This instance of SQL Server last reported using a process ID of 7252 at 12/29/2011 5:19:19 PM (local) 12/29/2011 10:19:19 PM (UTC). This is an informational message only; no user action is required.
2011-12-29 17:22:15.65 Server      Registry startup parameters:
2011-12-29 17:22:15.65 Server      	 -d c:\Visual Studio Projects\sqlrd6\bin\DATA\MSSQL.2\MSSQL\DATA\master.mdf
2011-12-29 17:22:15.65 Server      	 -e c:\Visual Studio Projects\sqlrd6\bin\DATA\MSSQL.2\MSSQL\LOG\ERRORLOG
2011-12-29 17:22:15.65 Server      	 -l c:\Visual Studio Projects\sqlrd6\bin\DATA\MSSQL.2\MSSQL\DATA\mastlog.ldf
2011-12-29 17:22:15.76 Server      SQL Server is starting at normal priority base (=7). This is an informational message only. No user action is required.
2011-12-29 17:22:15.76 Server      Detected 4 CPUs. This is an informational message; no user action is required.
2011-12-29 17:22:15.95 Server      Using dynamic lock allocation.  Initial allocation of 2500 Lock blocks and 5000 Lock Owner blocks per node.  This is an informational message only.  No user action is required.
2011-12-29 17:22:16.57 Server      Database mirroring has been enabled on this instance of SQL Server.
2011-12-29 17:22:16.59 spid5s      Starting up database 'master'.
2011-12-29 17:22:16.62 spid5s      Recovery is writing a checkpoint in database 'master' (1). This is an informational message only. No user action is required.
2011-12-29 17:22:16.66 spid5s      SQL Trace ID 1 was started by login "sa".
2011-12-29 17:22:16.66 spid5s      Starting up database 'mssqlsystemresource'.
2011-12-29 17:22:16.67 spid5s      The resource database build version is 9.00.5000. This is an informational message only. No user action is required.
2011-12-29 17:22:16.78 spid8s      Starting up database 'model'.
2011-12-29 17:22:16.78 spid5s      Server name is 'CSSUS-STEVE7\SQLRD'. This is an informational message only. No user action is required.
2011-12-29 17:22:16.78 spid5s      Starting up database 'msdb'.
2011-12-29 17:22:16.83 spid8s      Clearing tempdb database.
2011-12-29 17:22:16.88 spid8s      Starting up database 'tempdb'.
2011-12-29 17:22:16.90 spid5s      Recovery is complete. This is an informational message only. No user action is required.
2011-12-29 17:22:16.90 spid11s     The Service Broker protocol transport is disabled or not configured.
2011-12-29 17:22:16.90 spid11s     The Database Mirroring protocol transport is disabled or not configured.
2011-12-29 17:22:16.91 spid11s     Service Broker manager has started.
2011-12-29 17:22:17.02 Server      A self-generated certificate was successfully loaded for encryption.
2011-12-29 17:22:17.02 Server      Server is listening on [ 'any' <ipv6> 50565].
2011-12-29 17:22:17.02 Server      Server is listening on [ 'any' <ipv4> 50565].
2011-12-29 17:22:17.02 Server      Server local connection provider is ready to accept connection on [ \\.\pipe\SQLLocal\SQLRD ].
2011-12-29 17:22:17.02 Server      Server named pipe provider is ready to accept connection on [ \\.\pipe\MSSQL$SQLRD\sql\query ].
2011-12-29 17:22:17.02 Server      Dedicated administrator connection support was not started because it is not available on this edition of SQL Server. This is an informational message only. No user action is required.
2011-12-29 17:22:17.03 Server      The SQL Network Interface library could not register the Service Principal Name (SPN) for the SQL Server service. Error: 0x54b, state: 3. Failure to register an SPN may cause integrated authentication to fall back to NTLM instead of Kerberos. This is an informational message. Further action is only required if Kerberos authentication is required by authentication policies.
2011-12-29 17:22:17.03 Server      SQL Server is now ready for client connections. This is an informational message; no user action is required.
2011-12-29 17:26:50.57 Server      SQL Server is terminating because of a system shutdown. This is an informational message only. No user action is required.
2011-12-29 17:26:50.71 spid11s     Service Broker manager has shut down.
2011-12-29 17:26:50.71 spid11s     Error: 17054, Severity: 16, State: 1.
2011-12-29 17:26:50.71 spid11s     The current event was not reported to the Windows Events log. Operating system error = 1717(The interface is unknown.). You may need to clear the Windows Events log if it is full.
2011-12-29 17:26:50.75 spid5s      SQL Trace was stopped due to server shutdown. Trace ID = '1'. This is an informational message only; no user action is required.
