2012-01-03 08:34:44.17 Server      Microsoft SQL Server 2005 - 9.00.5000.00 (Intel X86) 
	Dec 10 2010 10:56:29 
	Copyright (c) 1988-2005 Microsoft Corporation
	Express Edition on Windows NT 6.1 (Build 7600: )

2012-01-03 08:34:44.22 Server      (c) 2005 Microsoft Corporation.
2012-01-03 08:34:44.27 Server      All rights reserved.
2012-01-03 08:34:44.32 Server      Server process ID is 7128.
2012-01-03 08:34:44.37 Server      Authentication mode is MIXED.
2012-01-03 08:34:44.37 Server      Logging SQL Server messages in file 'c:\Visual Studio Projects\sqlrd6\bin\DATA\MSSQL.2\MSSQL\LOG\ERRORLOG'.
2012-01-03 08:34:44.38 Server      This instance of SQL Server last reported using a process ID of 7680 at 1/2/2012 8:52:26 PM (local) 1/3/2012 1:52:26 AM (UTC). This is an informational message only; no user action is required.
2012-01-03 08:34:44.38 Server      Registry startup parameters:
2012-01-03 08:34:44.38 Server      	 -d c:\Visual Studio Projects\sqlrd6\bin\DATA\MSSQL.2\MSSQL\DATA\master.mdf
2012-01-03 08:34:44.38 Server      	 -e c:\Visual Studio Projects\sqlrd6\bin\DATA\MSSQL.2\MSSQL\LOG\ERRORLOG
2012-01-03 08:34:44.38 Server      	 -l c:\Visual Studio Projects\sqlrd6\bin\DATA\MSSQL.2\MSSQL\DATA\mastlog.ldf
2012-01-03 08:34:44.54 Server      SQL Server is starting at normal priority base (=7). This is an informational message only. No user action is required.
2012-01-03 08:34:44.54 Server      Detected 4 CPUs. This is an informational message; no user action is required.
2012-01-03 08:34:44.77 Server      Using dynamic lock allocation.  Initial allocation of 2500 Lock blocks and 5000 Lock Owner blocks per node.  This is an informational message only.  No user action is required.
2012-01-03 08:34:45.09 Server      Database mirroring has been enabled on this instance of SQL Server.
2012-01-03 08:34:45.11 spid4s      Starting up database 'master'.
2012-01-03 08:34:45.13 spid4s      Recovery is writing a checkpoint in database 'master' (1). This is an informational message only. No user action is required.
2012-01-03 08:34:45.17 spid4s      SQL Trace ID 1 was started by login "sa".
2012-01-03 08:34:44.98 spid4s      Starting up database 'mssqlsystemresource'.
2012-01-03 08:34:44.99 spid4s      The resource database build version is 9.00.5000. This is an informational message only. No user action is required.
2012-01-03 08:34:45.09 spid8s      Starting up database 'model'.
2012-01-03 08:34:45.09 spid4s      Server name is 'CSSUS-STEVE7\SQLRD'. This is an informational message only. No user action is required.
2012-01-03 08:34:45.09 spid4s      Starting up database 'msdb'.
2012-01-03 08:34:45.13 spid8s      Clearing tempdb database.
2012-01-03 08:34:45.18 spid8s      Starting up database 'tempdb'.
2012-01-03 08:34:45.20 spid4s      Recovery is complete. This is an informational message only. No user action is required.
2012-01-03 08:34:45.20 spid11s     The Service Broker protocol transport is disabled or not configured.
2012-01-03 08:34:45.20 spid11s     The Database Mirroring protocol transport is disabled or not configured.
2012-01-03 08:34:45.21 spid11s     Service Broker manager has started.
2012-01-03 08:34:45.30 Server      A self-generated certificate was successfully loaded for encryption.
2012-01-03 08:34:45.30 Server      Server is listening on [ 'any' <ipv6> 50565].
2012-01-03 08:34:45.30 Server      Server is listening on [ 'any' <ipv4> 50565].
2012-01-03 08:34:45.30 Server      Server local connection provider is ready to accept connection on [ \\.\pipe\SQLLocal\SQLRD ].
2012-01-03 08:34:45.30 Server      Server named pipe provider is ready to accept connection on [ \\.\pipe\MSSQL$SQLRD\sql\query ].
2012-01-03 08:34:45.31 Server      Dedicated administrator connection support was not started because it is not available on this edition of SQL Server. This is an informational message only. No user action is required.
2012-01-03 08:34:45.33 Server      SQL Server is now ready for client connections. This is an informational message; no user action is required.
2012-01-03 09:04:02.33 spid1s      Server resumed execution after being idle 1728 seconds. Reason: timer event.
2012-01-04 01:35:46.75 Server      SQL Server is terminating because of a system shutdown. This is an informational message only. No user action is required.
2012-01-04 01:35:49.76 spid11s     Service Broker manager has shut down.
2012-01-04 01:35:49.78 spid11s     Error: 17054, Severity: 16, State: 1.
2012-01-04 01:35:49.78 spid11s     The current event was not reported to the Windows Events log. Operating system error = 1717(The interface is unknown.). You may need to clear the Windows Events log if it is full.
2012-01-04 01:35:49.81 spid4s      SQL Trace was stopped due to server shutdown. Trace ID = '1'. This is an informational message only; no user action is required.
2012-01-04 01:35:49.92 Server      The SQL Network Interface library could not deregister the Service Principal Name (SPN) for the SQL Server service. Error: 0x6d3, state: 4. Administrator should deregister this SPN manually to avoid client authentication errors.
